=====================================================
use pick for picking of the different module

=====================================================
 we need to install the module validator@5.6.0

